Name,HG,HT,TR,CTH,BD,VH,CTQ,DQT,KS,CVN
101.jpg,0,1,0,0,0,0,1,0,0,0
102.jpg,0,1,0,0,0,0,0,0,1,0
103.jpg,0,1,0,0,0,0,0,0,1,0
106.jpg,0,1,0,0,0,0,0,0,0,0
107.jpg,0,1,0,0,0,0,0,0,0,0
108.jpg,0,1,0,0,0,0,0,0,0,0
109.jpg,0,1,0,0,0,0,0,0,0,0
110.jpg,0,1,0,0,0,0,0,0,0,0
111.jpg,0,1,0,0,0,0,0,0,0,0
112.jpg,0,1,0,0,0,0,0,0,0,0
113.jpg,0,1,0,0,0,0,0,0,1,0
116.jpg,0,1,0,0,0,0,0,0,0,0
117.jpg,0,1,0,0,0,0,0,0,0,0
118.jpg,0,1,0,0,0,0,0,0,0,1
119.jpg,0,0,0,0,0,0,0,0,0,0
12.jpg,1,0,0,0,0,0,0,0,0,0
120.jpg,0,1,0,0,0,1,0,0,0,0
121.jpg,0,1,0,0,0,1,0,0,0,1
122.jpg,0,1,0,0,0,0,0,0,1,0
124.jpg,0,1,0,0,0,0,1,0,0,0
126.jpg,0,1,0,0,0,0,0,0,0,0
127.jpg,0,1,0,0,0,0,0,0,0,0
13.jpg,1,0,0,0,0,0,0,0,0,0
130.jpg,0,1,0,0,0,0,0,0,1,0
131.jpg,0,1,0,0,0,0,0,0,1,0
132.jpg,0,1,0,0,0,0,0,0,1,0
133.jpg,0,1,0,0,0,1,0,0,0,0
134.jpg,0,1,0,0,0,1,0,0,0,0
136.jpg,0,1,0,0,0,0,0,0,0,0
137.jpg,0,1,0,0,0,0,0,0,1,0
138.jpg,0,1,0,0,0,0,0,0,0,0
139.jpg,0,1,0,0,0,0,0,0,0,1
14.jpg,1,0,0,0,0,0,0,0,0,0
140.jpg,0,1,0,0,0,0,0,0,0,1
141.jpg,0,1,0,0,0,0,0,0,0,1
142.jpg,0,1,0,0,0,0,0,0,1,0
143.jpg,0,1,0,0,0,0,0,0,1,0
144.jpg,0,1,0,0,0,0,0,0,1,0
145.jpg,0,1,0,0,0,0,0,0,1,0
146.jpg,0,1,0,0,0,0,0,0,1,0
147.jpg,0,1,0,0,0,0,0,0,1,0
148.jpg,0,1,0,0,0,0,0,0,1,0
149.jpg,0,1,0,0,0,0,0,1,0,0
15.jpg,1,0,0,0,0,0,0,0,0,0
151.jpg,0,1,0,0,0,1,0,0,0,0
152.jpg,0,0,0,0,0,1,0,0,0,0
153.jpg,0,1,0,0,0,1,0,0,0,0
154.jpg,0,1,0,0,0,1,0,0,0,0
156.jpg,0,1,0,0,0,0,0,0,0,0
157.jpg,0,1,0,0,0,1,0,0,0,0
158.jpg,0,1,0,0,0,0,1,0,0,0
160.jpg,0,1,0,0,0,0,1,0,0,0
162.jpg,0,1,0,0,0,0,0,0,1,0
163.jpg,0,1,0,0,0,0,0,0,0,0
164.jpg,0,1,0,0,0,0,1,0,0,0
165.jpg,0,1,0,0,0,0,1,0,0,0
166.jpg,0,1,0,0,0,0,0,0,0,1
167.jpg,0,1,0,0,0,0,0,0,0,1
168.jpg,0,1,0,0,0,0,0,0,0,1
17.jpg,1,0,0,0,0,0,0,0,0,0
170.jpg,0,1,0,0,0,0,1,0,0,0
174.jpg,0,0,0,0,0,1,0,0,0,0
175.jpg,0,0,0,0,0,1,0,0,0,0
176.jpg,0,1,0,0,0,1,0,0,0,0
177.jpg,0,1,0,0,0,0,0,0,1,0
178.jpg,0,1,0,0,0,0,0,0,1,0
179.jpg,0,1,0,0,0,0,0,0,0,0
18.jpg,1,0,1,0,0,0,0,0,0,0
180.jpg,0,1,0,0,0,0,0,0,1,0
182.jpg,0,1,0,0,0,0,0,0,0,0
183.jpg,1,0,0,0,0,0,0,0,0,0
185.jpg,0,1,0,0,0,0,0,0,0,0
186.jpg,0,1,0,0,0,0,0,0,0,0
187.jpg,0,1,0,0,0,0,0,0,0,0
188.jpg,0,1,0,0,0,0,0,0,0,0
19.jpg,1,0,0,1,0,0,0,0,0,0
190.jpg,0,1,0,0,0,0,0,0,0,0
191.jpg,0,1,0,0,0,0,0,0,1,0
192.jpg,0,1,0,0,0,0,0,0,1,0
193.jpg,0,1,0,0,0,0,0,0,1,0
194.jpg,0,1,0,0,0,0,0,0,1,0
196.jpg,0,1,0,0,0,0,0,0,0,0
197.jpg,0,1,0,0,0,0,0,0,0,0
198.jpg,0,1,0,0,0,0,0,0,0,0
199.jpg,0,1,0,0,0,0,0,0,1,0
2.jpeg,1,0,0,1,0,0,0,0,0,0
20.jpg,1,0,1,0,1,0,0,0,0,0
200.jpg,1,0,1,1,1,0,0,0,0,0
202.jpg,1,0,0,0,0,0,0,0,0,0
203.jpg,0,1,0,0,0,0,0,0,1,0
204.jpg,1,0,0,0,0,0,0,0,0,0
22.jpg,1,0,0,0,1,0,0,0,0,0
23.jpg,1,0,0,1,0,0,0,0,0,0
24.jpg,1,0,0,1,0,0,0,0,0,0
27.jpg,1,0,0,0,0,0,0,0,0,0
30.jpg,1,0,0,0,0,0,0,0,0,0
32.jpg,0,1,0,0,0,0,0,0,1,0
33.jpg,0,1,0,0,0,0,0,0,1,0
34.jpg,1,0,0,0,0,0,0,0,0,0
36.jpg,1,0,0,0,0,0,0,0,0,0
37.jpg,1,0,0,0,0,0,0,0,0,0
38.jpg,0,1,0,0,0,0,0,0,1,0
39.jpg,0,1,0,0,0,0,0,0,1,0
40.jpg,1,0,0,0,1,0,0,0,0,0
41.jpg,1,0,1,0,1,0,0,0,0,0
43.jpg,1,0,0,0,0,0,0,0,0,0
44.jpg,1,0,0,0,0,0,0,0,0,0
45.jpg,1,0,0,0,0,0,0,0,0,0
46.jpg,1,0,0,0,0,0,0,0,0,0
48.jpg,1,0,0,0,0,0,0,0,0,0
5.jpeg,1,0,1,1,0,0,0,0,0,0
50.jpg,1,0,0,0,0,0,0,0,0,0
51.jpg,1,0,1,0,0,0,0,0,0,0
52.jpg,1,0,0,0,0,0,0,0,0,0
53.jpg,1,0,0,0,0,0,0,0,0,0
55.jpg,1,0,0,0,0,0,0,0,0,0
56.jpg,1,0,0,1,0,0,0,0,0,0
57.jpg,1,0,1,1,1,0,0,0,0,0
6.jpeg,0,1,0,0,0,0,1,0,0,0
61.jpg,1,0,0,0,0,0,0,0,0,0
63.jpg,1,0,1,1,0,0,0,0,0,0
64.jpg,1,0,0,0,0,0,0,0,0,0
66.jpg,1,0,0,0,0,0,0,0,0,0
67.jpg,1,0,0,0,0,0,0,0,0,0
68.jpg,0,1,0,0,0,0,0,0,1,0
71.jpg,0,1,0,0,0,0,0,0,1,0
72.jpg,0,1,0,0,0,0,0,0,1,0
73.jpg,1,0,0,0,0,0,0,0,0,0
74.jpg,1,0,0,0,0,0,0,0,0,0
75.jpg,1,0,0,0,0,0,0,0,0,0
76.jpg,1,0,0,0,0,0,0,0,0,0
78.jpg,1,0,0,0,0,0,0,0,0,0
79.jpg,1,0,0,0,0,0,0,0,0,0
8.jpg,1,0,0,0,0,0,0,0,0,0
80.jpg,1,0,0,0,0,0,0,0,0,0
81.jpg,1,0,0,0,0,0,0,0,0,0
82.jpg,1,0,0,0,0,0,0,0,0,0
84.jpg,1,0,0,0,0,0,0,0,0,0
85.jpg,1,0,0,0,0,0,0,0,0,0
86.jpg,1,0,0,0,0,0,0,0,0,0
87.jpg,1,0,0,0,0,1,0,0,0,0
88.jpg,1,0,0,0,0,0,0,0,0,0
89.jpg,1,0,0,0,0,0,0,0,0,0
9.jpg,1,0,0,0,0,0,0,0,0,0
90.jpg,1,0,0,0,0,0,0,0,0,0
92.jpg,1,0,0,0,0,0,0,0,0,0
93.jpg,1,0,0,0,0,0,0,0,0,0
94.jpg,1,0,0,0,0,0,0,0,0,0
96.jpg,0,1,0,0,0,0,0,0,1,0
97.jpg,1,0,0,0,0,0,0,0,0,0
98.jpg,0,1,0,0,0,0,0,0,0,0
